[
  {
    "name": "Vorzug 0",
    "book": "Regelwerk",
    "page": 0,
    "cost": 7,
    "mincost": 1,
    "maxcost": 9001,
    "effect": "Effektwert"
  },
  {
    "name": "Vorzug 1",
    "book": "Regelwerk",
    "page": 0,
    "cost": 7,
    "mincost": 1,
    "maxcost": 9001,
    "effect": "Effektwert"
  },
  {
    "name": "Vorzug 2",
    "book": "Regelwerk",
    "page": 0,
    "cost": 7,
    "mincost": 1,
    "maxcost": 9001,
    "effect": "Effektwert"
  }
]
